-------------------------------------------------------------------------------
Test set: scrambler.ScrambleTest
-------------------------------------------------------------------------------
Tests run: 9, Failures: 0, Errors: 0, Skipped: 0, Time elapsed: 0.059 sec
