/home/ivan/mdrive/Projects/school/NTI/ontwerpen-programmeren/projects/Scrambler/src/main/java/scrambler/ScramblerApp.java
/home/ivan/mdrive/Projects/school/NTI/ontwerpen-programmeren/projects/Scrambler/src/main/java/scrambler/Connection.java
/home/ivan/mdrive/Projects/school/NTI/ontwerpen-programmeren/projects/Scrambler/src/main/java/scrambler/ConnectionData.java
/home/ivan/mdrive/Projects/school/NTI/ontwerpen-programmeren/projects/Scrambler/src/main/java/scrambler/Admin.java
/home/ivan/mdrive/Projects/school/NTI/ontwerpen-programmeren/projects/Scrambler/src/main/java/scrambler/Scramble.java
/home/ivan/mdrive/Projects/school/NTI/ontwerpen-programmeren/projects/Scrambler/src/main/java/scrambler/GUIController.java
/home/ivan/mdrive/Projects/school/NTI/ontwerpen-programmeren/projects/Scrambler/src/main/java/scrambler/XMLReader.java
